Data Wrangling in R
…
---

# Simple **dplyr** verbs

#### `select()` - choose columns (variables) by name

```r
gss %>% select(id, sex, race)
```

```
## # A tibble: 4,761 x 3
##    id    sex    race 
##    <fct> <fct>  <fct>
##  1 9     FEMALE BLACK
##  2 3001  FEMALE OTHER
##  3 6001  FEMALE BLACK
##  4 10    FEMALE OTHER
##  5 3002  FEMALE OTHER
##  6 6002  FEMALE WHITE
##  7 11    FEMALE BLACK
##  8 3003  FEMALE BLACK
##  9 6003  FEMALE BLACK
## 10 12    MALE   BLACK
## # … with 4,751 more rows
```

---

# Simple **dplyr** verbs

#### `filter()` - choose rows (observations) by some characteristics

```r
gss %>% filter(race == "BLACK")
```

```
## # A tibble: 665 x 15
##    firstid  wave year  id      age sex   race  divorce income income06 rincome vote00 vote04
##    <fct>   <dbl> <fct> <fct> <dbl> <fct> <fct> <fct>   <fct>  <fct>    <fct>   <fct>  <fct> 
##  1 9           1 2006  9        23 FEMA… BLACK <NA>    $2500… $40000 … $25000… INELI… VOTED 
##  2 9           3 2010  6001     27 FEMA… BLACK NO      $2500… $60000 … $25000… IAP    VOTED 
##  3 11          1 2006  11       81 FEMA… BLACK YES     <NA>   <NA>     <NA>    VOTED  VOTED 
##  4 11          2 2008  3003     83 FEMA… BLACK YES     $2000… $20000 … <NA>    IAP    VOTED 
##  5 11          3 2010  6003     85 FEMA… BLACK NO      <NA>   <NA>     <NA>    IAP    DID N…
##  6 12          1 2006  12       47 MALE  BLACK <NA>    <NA>   <NA>     <NA>    DID N… DID N…
##  7 12          2 2008  3004     49 MALE  BLACK <NA>    $1000… $12500 … <NA>    IAP    DID N…
##  8 13          1 2006  13       26 MALE  BLACK <NA>    $8000… $8 000 … <NA>    VOTED  VOTED 
##  9 13          2 2008  3005     28 MALE  BLACK <NA>    $1000… $12500 … $10000… IAP    VOTED 
## 10 13          3 2010  6005     30 MALE  BLACK <NA>    $2500… $30000 … $25000… IAP    VOTED 
## # … with 655 more rows, and 2 more variables: vote08 <dbl>, earthsun <fct>
```

---

# Simple **dplyr** verbs

#### `arrange()` - put data in order by one or more variables

```r
gss %>% arrange(desc(age))
```

```
## # A tibble: 4,761 x 15
##    firstid  wave year  id      age sex   race  divorce income income06 rincome vote00 vote04
##    <fct>   <dbl> <fct> <fct> <dbl> <fct> <fct> <fct>   <fct>  <fct>    <fct>   <fct>  <fct> 
##  1 181         1 2006  181      89 MALE  WHITE NO      $2500… $40000 … <NA>    VOTED  VOTED 
##  2 181         2 2008  3062     89 MALE  WHITE NO      $2500… $50000 … <NA>    IAP    VOTED 
##  3 431         1 2006  431      89 FEMA… WHITE NO      $1500… $15000 … <NA>    VOTED  VOTED 
##  4 431         2 2008  3137     89 FEMA… WHITE NO      $1500… $15000 … <NA>    IAP    VOTED 
##  5 431         3 2010  6110     89 FEMA… WHITE NO      $1000… $12500 … <NA>    IAP    VOTED 
##  6 771         1 2006  771      89 FEMA… OTHER NO      <NA>   <NA>     <NA>    DID N… DID N…
##  7 771         2 2008  3257     89 FEMA… WHITE NO      <NA>   <NA>     <NA>    IAP    DID N…
##  8 1101        2 2008  3356     89 FEMA… WHITE NO      $2500… $150000… <NA>    IAP    VOTED 
##  9 1101        3 2010  6289     89 FEMA… WHITE NO      <NA>   <NA>     <NA>    IAP    VOTED 
## 10 1292        3 2010  6342     89 MALE  WHITE NO      $2500… $50000 … <NA>    IAP    VOTED 
## # … with 4,751 more rows, and 2 more variables: vote08 <dbl>, earthsun <fct>
```
…
